isl-chapter 10
…
isl-chapter 10

Merian Herrera

8/8/2019

Chapter 10: Unsupervised Learning

## # A tibble: 50 x 4
##    Murder Assault UrbanPop  Rape
##     <dbl>   <int>    <int> <dbl>
##  1   13.2     236       58  21.2
##  2   10       263       48  44.5
##  3    8.1     294       80  31  
##  4    8.8     190       50  19.5
##  5    9       276       91  40.6
##  6    7.9     204       78  38.7
##  7    3.3     110       77  11.1
##  8    5.9     238       72  15.8
##  9   15.4     335       80  31.9
## 10   17.4     211       60  25.8
## # ... with 40 more rows
…
